<?xml version="1.0" encoding="UTF-8" standalone="no"?>
<!-- Created with Inkscape (http://www.inkscape.org/) -->

<svg
   xmlns:dc="http://purl.org/dc/elements/1.1/"
   xmlns:cc="http://creativecommons.org/ns#"
   xmlns:rdf="http://www.w3.org/1999/02/22-rdf-syntax-ns#"
   xmlns:svg="http://www.w3.org/2000/svg"
   xmlns="http://www.w3.org/2000/svg"
   xmlns:sodipodi="http://sodipodi.sourceforge.net/DTD/sodipodi-0.dtd"
   xmlns:inkscape="http://www.inkscape.org/namespaces/inkscape"
   width="210mm"
   height="297mm"
   viewBox="0 0 744.09448819 1052.3622047"
   id="svg2"
   version="1.1"
   inkscape:version="0.91 r13725"
   sodipodi:docname="android.svg">
  <defs
     id="defs4" />
  <sodipodi:namedview
     id="base"
     pagecolor="#ffffff"
     bordercolor="#666666"
     borderopacity="1.0"
     inkscape:pageopacity="0.0"
     inkscape:pageshadow="2"
     inkscape:zoom="1.4"
     inkscape:cx="465.25371"
     inkscape:cy="397.82769"
     inkscape:document-units="px"
     inkscape:current-layer="layer1"
     showgrid="false"
     inkscape:window-width="1280"
     inkscape:window-height="698"
     inkscape:window-x="0"
     inkscape:window-y="1"
     inkscape:window-maximized="1" />
  <metadata
     id="metadata7">
    <rdf:RDF>
      <cc:Work
         rdf:about="">
        <dc:format>image/svg+xml</dc:format>
        <dc:type
           rdf:resource="http://purl.org/dc/dcmitype/StillImage" />
        <dc:title></dc:title>
      </cc:Work>
    </rdf:RDF>
  </metadata>
  <g
     inkscape:label="Layer 1"
     inkscape:groupmode="layer"
     id="layer1">
    <path
       style="opacity:1;fill:#2e7d32;fill-opacity:1;stroke:none;stroke-opacity:1"
       d="m 397.96066,605.93331 0,72.461 c 0,8.00514 7.37826,14.44989 16.54296,14.44989 l 3.97657,0 0,22.69675 c 0,3.02441 2.7875,5.45922 6.25,5.45922 3.4625,0 6.25,-2.43481 6.25,-5.45922 l 0,-22.69675 19.82422,0 0,22.69675 c 0,3.02441 2.7875,5.45922 6.25,5.45922 3.4625,0 6.25,-2.43481 6.25,-5.45922 l 0,-22.69675 3.97656,0 c 9.1647,0 16.54297,-6.44475 16.54297,-14.44989 l 0,-72.461 -85.86328,0 z"
       id="rect4171"
       inkscape:connector-curvature="0" />
    <path
       style="opacity:1;fill:#2e7d32;fill-opacity:1;stroke:none;stroke-opacity:1"
       d="m 416.12276,552.19308 c -0.4607,0.0304 -0.91851,0.19471 -1.3125,0.5 -1.0506,0.8141 -1.24183,2.31463 -0.42773,3.36523 l 9.67969,12.49219 a 42.678944,42.678944 0 0 0 -25.31446,32.74023 l 84.29102,0 a 42.678944,42.678944 0 0 0 -25.32422,-32.73047 l 9.6875,-12.50195 c 0.8141,-1.0506 0.62483,-2.55113 -0.42578,-3.36523 -1.0506,-0.8141 -2.55309,-0.62483 -3.36719,0.42578 L 452.9587,566.863 a 42.678944,42.678944 0 0 0 -12.07617,-1.80274 42.678944,42.678944 0 0 0 -12.07227,1.78321 L 418.1755,553.11886 c -0.50881,-0.65663 -1.28488,-0.97642 -2.05274,-0.92578 z m 14.03711,25.09765 a 3.9774756,3.9774756 0 0 1 3.97852,3.97852 3.9774756,3.9774756 0 0 1 -3.97852,3.97656 3.9774756,3.9774756 0 0 1 -3.97656,-3.97656 3.9774756,3.9774756 0 0 1 3.97656,-3.97852 z m 21.4668,0 a 3.9774756,3.9774756 0 0 1 3.97656,3.97852 3.9774756,3.9774756 0 0 1 -3.97656,3.97656 3.9774756,3.9774756 0 0 1 -3.97851,-3.97656 3.9774756,3.9774756 0 0 1 3.97851,-3.97852 z"
       id="path4176"
       inkscape:connector-curvature="0" />
    <rect
       style="opacity:1;fill:#2e7d32;fill-opacity:1;stroke:none;stroke-opacity:1"
       id="rect4181"
       width="12.5"
       height="67.5"
       x="488.92856"
       y="605.93359"
       ry="6.25" />
    <rect
       ry="6.25"
       y="605.93359"
       x="380.35712"
       height="67.5"
       width="12.5"
       id="rect4183"
       style="opacity:1;fill:#2e7d32;fill-opacity:1;stroke:none;stroke-opacity:1" />
  </g>
</svg>
